%YAML 1.1
%TAG !u! tag:unity3d.com,2011:
--- !u!114 &11400000
MonoBehaviour:
  m_ObjectHideFlags: 0
  m_CorrespondingSourceObject: {fileID: 0}
  m_PrefabInternal: {fileID: 0}
  m_GameObject: {fileID: 0}
  m_Enabled: 1
  m_EditorHideFlags: 0
  m_Script: {fileID: 11500000, guid: 43b573281ff635846bec6fee112af468, type: 3}
  m_Name: 11.png
  m_EditorClassIdentifier: 
  face: {fileID: 2800000, guid: 1b5429527798dea4b8b060c5e966831e, type: 3}
  matchIdentifier: 2
